This file contains the buying history of 10 random returning customers when price increases by 20%

(1) CustomerID: 721	 history:
 	
	Bought cookie for 2 euro at 17:04:00

	Bought water for 2 euro at 17:04:00
	Bought pie for 3 euro at 13:52:00

	Bought soda for 3 euro at 13:52:00
	Bought pie for 3 euro at 11:06:00

	Bought soda for 3 euro at 11:06:00
	Bought sandwich for 5 euro at 11:02:00

	Bought soda for 3 euro at 11:02:00
	Bought cookie for 2 euro at 11:10:00

	Bought coffee for 3 euro at 11:10:00
	Bought None for 0 euro at 08:40:00

	Bought coffee for 3 euro at 08:40:00
	Bought cookie for 2 euro at 14:48:00

	Bought water for 2 euro at 14:48:00
	Bought sandwich for 5 euro at 12:36:00

	Bought milkshake for 5 euro at 12:36:00
	Bought None for 0 euro at 17:00:00

	Bought water for 2 euro at 17:00:00
	Bought sandwich for 5 euro at 12:22:00

	Bought soda for 3 euro at 12:22:00
	Bought pie for 3 euro at 15:00:00

	Bought water for 2 euro at 15:00:00
	Bought None for 0 euro at 14:32:00

	Bought tea for 3 euro at 14:32:00
	Bought sandwich for 5 euro at 12:08:00

	Bought soda for 3 euro at 12:08:00
	Bought None for 0 euro at 09:15:00

	Bought soda for 3 euro at 09:15:00
	Bought pie for 3 euro at 15:32:00

	Bought frappucino for 4 euro at 15:32:00
	Bought cookie for 2 euro at 11:18:00

	Bought soda for 3 euro at 11:18:00
	Bought cookie for 2 euro at 13:44:00

	Bought coffee for 3 euro at 13:44:00
	Bought muffin for 3 euro at 11:12:00

	Bought soda for 3 euro at 11:12:00
	Bought cookie for 2 euro at 12:02:00

	Bought soda for 3 euro at 12:02:00
	Bought sandwich for 5 euro at 12:24:00

	Bought frappucino for 4 euro at 12:24:00
	Bought sandwich for 5 euro at 12:44:00

	Bought frappucino for 4 euro at 12:44:00
	Bought pie for 3 euro at 14:24:00

	Bought water for 2 euro at 14:24:00
	Bought pie for 3 euro at 11:04:00

	Bought milkshake for 5 euro at 11:04:00
	Bought cookie for 2 euro at 13:20:00

	Bought soda for 3 euro at 13:20:00
	Bought sandwich for 5 euro at 12:54:00

	Bought water for 2 euro at 12:54:00
	Bought None for 0 euro at 13:20:00

	Bought water for 2 euro at 13:20:00
	Bought None for 0 euro at 15:08:00

	Bought milkshake for 5 euro at 15:08:00
	Bought None for 0 euro at 15:12:00

	Bought milkshake for 5 euro at 15:12:00
	Bought None for 0 euro at 10:00:00

	Bought tea for 3 euro at 10:00:00
	Bought None for 0 euro at 08:35:00

	Bought milkshake for 5 euro at 08:35:00
	Bought muffin for 3 euro at 16:16:00

	Bought soda for 3 euro at 16:16:00
	Bought None for 0 euro at 14:24:00

	Bought frappucino for 4 euro at 14:24:00
	Bought None for 0 euro at 15:24:00

	Bought tea for 3 euro at 15:24:00
	Bought sandwich for 6.0 euro at 11:04:00

	Bought soda for 3.6 euro at 11:04:00
	Bought None for 0.0 euro at 14:56:00

	Bought tea for 3.6 euro at 14:56:00
	Bought None for 0.0 euro at 10:40:00

	Bought tea for 3.6 euro at 10:40:00
	Bought None for 0.0 euro at 09:55:00

	Bought milkshake for 6.0 euro at 09:55:00
	Bought None for 0.0 euro at 17:08:00

	Bought milkshake for 6.0 euro at 17:08:00
	Bought cookie for 2.4 euro at 16:48:00

	Bought coffee for 3.6 euro at 16:48:00
	Bought sandwich for 6.0 euro at 12:54:00

	Bought tea for 3.6 euro at 12:54:00
	Bought None for 0.0 euro at 16:20:00

	Bought water for 2.4 euro at 16:20:00
	Bought None for 0.0 euro at 13:36:00

	Bought water for 2.4 euro at 13:36:00
	Bought pie for 3.6 euro at 12:18:00

	Bought water for 2.4 euro at 12:18:00
	Bought None for 0.0 euro at 09:50:00

	Bought tea for 3.6 euro at 09:50:00
	Bought None for 0.0 euro at 17:04:00

	Bought frappucino for 4.8 euro at 17:04:00
	Bought None for 0.0 euro at 14:04:00

	Bought water for 2.4 euro at 14:04:00
(2) CustomerID: 380	 history:
 	
	Bought cookie for 2 euro at 11:42:00

	Bought soda for 3 euro at 11:42:00
	Bought pie for 3 euro at 11:30:00

	Bought tea for 3 euro at 11:30:00
	Bought sandwich for 5 euro at 11:10:00

	Bought soda for 3 euro at 11:10:00
	Bought None for 0 euro at 09:40:00

	Bought coffee for 3 euro at 09:40:00
	Bought pie for 3 euro at 16:20:00

	Bought milkshake for 5 euro at 16:20:00
	Bought pie for 3 euro at 17:08:00

	Bought coffee for 3 euro at 17:08:00
	Bought sandwich for 5 euro at 11:18:00

	Bought soda for 3 euro at 11:18:00
	Bought sandwich for 5 euro at 11:04:00

	Bought frappucino for 4 euro at 11:04:00
	Bought sandwich for 5 euro at 11:12:00

	Bought soda for 3 euro at 11:12:00
	Bought None for 0 euro at 16:28:00

	Bought tea for 3 euro at 16:28:00
	Bought sandwich for 5 euro at 12:02:00

	Bought water for 2 euro at 12:02:00
	Bought None for 0 euro at 16:48:00

	Bought soda for 3 euro at 16:48:00
	Bought pie for 3 euro at 14:16:00

	Bought tea for 3 euro at 14:16:00
	Bought None for 0 euro at 09:25:00

	Bought coffee for 3 euro at 09:25:00
	Bought sandwich for 5 euro at 11:04:00

	Bought frappucino for 4 euro at 11:04:00
	Bought muffin for 3 euro at 12:40:00

	Bought water for 2 euro at 12:40:00
	Bought None for 0 euro at 09:55:00

	Bought water for 2 euro at 09:55:00
	Bought None for 0 euro at 16:20:00

	Bought milkshake for 5 euro at 16:20:00
	Bought None for 0 euro at 17:00:00

	Bought coffee for 3 euro at 17:00:00
	Bought cookie for 2 euro at 15:20:00

	Bought tea for 3 euro at 15:20:00
	Bought sandwich for 5 euro at 11:16:00

	Bought tea for 3 euro at 11:16:00
	Bought None for 0 euro at 10:30:00

	Bought soda for 3 euro at 10:30:00
	Bought pie for 3 euro at 11:18:00

	Bought soda for 3 euro at 11:18:00
	Bought None for 0 euro at 13:56:00

	Bought soda for 3 euro at 13:56:00
	Bought pie for 3.6 euro at 15:44:00

	Bought soda for 3.6 euro at 15:44:00
	Bought pie for 3.6 euro at 12:32:00

	Bought frappucino for 4.8 euro at 12:32:00
	Bought None for 0.0 euro at 13:20:00

	Bought soda for 3.6 euro at 13:20:00
	Bought cookie for 2.4 euro at 11:06:00

	Bought coffee for 3.6 euro at 11:06:00
	Bought cookie for 2.4 euro at 12:40:00

	Bought soda for 3.6 euro at 12:40:00
	Bought None for 0.0 euro at 09:15:00

	Bought tea for 3.6 euro at 09:15:00
	Bought pie for 3.6 euro at 12:18:00

	Bought frappucino for 4.8 euro at 12:18:00
	Bought pie for 3.6 euro at 14:32:00

	Bought coffee for 3.6 euro at 14:32:00
	Bought muffin for 3.6 euro at 14:08:00

	Bought tea for 3.6 euro at 14:08:00
	Bought None for 0.0 euro at 16:20:00

	Bought tea for 3.6 euro at 16:20:00
	Bought sandwich for 6.0 euro at 11:06:00

	Bought soda for 3.6 euro at 11:06:00
	Bought muffin for 3.6 euro at 17:56:00

	Bought frappucino for 4.8 euro at 17:56:00
	Bought cookie for 2.4 euro at 14:44:00

	Bought water for 2.4 euro at 14:44:00
	Bought None for 0.0 euro at 14:40:00

	Bought frappucino for 4.8 euro at 14:40:00
	Bought None for 0.0 euro at 15:48:00

	Bought milkshake for 6.0 euro at 15:48:00
	Bought pie for 3.6 euro at 12:50:00

	Bought soda for 3.6 euro at 12:50:00
	Bought None for 0.0 euro at 15:40:00

	Bought tea for 3.6 euro at 15:40:00
	Bought pie for 3.6 euro at 13:52:00

	Bought frappucino for 4.8 euro at 13:52:00
(3) CustomerID: 510	 history:
 	
	Bought None for 0 euro at 10:30:00

	Bought tea for 3 euro at 10:30:00
	Bought sandwich for 5 euro at 12:28:00

	Bought soda for 3 euro at 12:28:00
	Bought None for 0 euro at 13:36:00

	Bought tea for 3 euro at 13:36:00
	Bought pie for 3 euro at 15:04:00

	Bought tea for 3 euro at 15:04:00
	Bought pie for 3 euro at 12:14:00

	Bought coffee for 3 euro at 12:14:00
	Bought None for 0 euro at 08:55:00

	Bought coffee for 3 euro at 08:55:00
	Bought sandwich for 5 euro at 11:50:00

	Bought water for 2 euro at 11:50:00
	Bought None for 0 euro at 09:50:00

	Bought coffee for 3 euro at 09:50:00
	Bought cookie for 2 euro at 12:26:00

	Bought milkshake for 5 euro at 12:26:00
	Bought cookie for 2 euro at 15:36:00

	Bought tea for 3 euro at 15:36:00
	Bought sandwich for 5 euro at 11:04:00

	Bought soda for 3 euro at 11:04:00
	Bought None for 0 euro at 10:35:00

	Bought water for 2 euro at 10:35:00
	Bought sandwich for 5 euro at 11:56:00

	Bought soda for 3 euro at 11:56:00
	Bought sandwich for 5 euro at 11:52:00

	Bought soda for 3 euro at 11:52:00
	Bought cookie for 2 euro at 16:48:00

	Bought milkshake for 5 euro at 16:48:00
	Bought cookie for 2 euro at 12:44:00

	Bought soda for 3 euro at 12:44:00
	Bought pie for 3 euro at 12:26:00

	Bought soda for 3 euro at 12:26:00
	Bought None for 0 euro at 13:12:00

	Bought frappucino for 4 euro at 13:12:00
	Bought pie for 3 euro at 13:52:00

	Bought milkshake for 5 euro at 13:52:00
	Bought None for 0 euro at 14:20:00

	Bought frappucino for 4 euro at 14:20:00
	Bought None for 0 euro at 16:12:00

	Bought milkshake for 5 euro at 16:12:00
	Bought cookie for 2 euro at 11:24:00

	Bought soda for 3 euro at 11:24:00
	Bought sandwich for 5 euro at 11:58:00

	Bought soda for 3 euro at 11:58:00
	Bought None for 0 euro at 15:12:00

	Bought tea for 3 euro at 15:12:00
	Bought None for 0 euro at 08:55:00

	Bought coffee for 3 euro at 08:55:00
	Bought muffin for 3 euro at 17:20:00

	Bought frappucino for 4 euro at 17:20:00
	Bought None for 0 euro at 10:25:00

	Bought milkshake for 5 euro at 10:25:00
	Bought cookie for 2 euro at 14:32:00

	Bought frappucino for 4 euro at 14:32:00
	Bought cookie for 2 euro at 11:20:00

	Bought soda for 3 euro at 11:20:00
	Bought None for 0 euro at 15:44:00

	Bought soda for 3 euro at 15:44:00
	Bought sandwich for 5 euro at 12:26:00

	Bought tea for 3 euro at 12:26:00
	Bought None for 0 euro at 14:44:00

	Bought soda for 3 euro at 14:44:00
	Bought None for 0 euro at 08:35:00

	Bought coffee for 3 euro at 08:35:00
	Bought muffin for 3 euro at 11:48:00

	Bought tea for 3 euro at 11:48:00
	Bought None for 0 euro at 17:16:00

	Bought frappucino for 4 euro at 17:16:00
	Bought None for 0 euro at 14:00:00

	Bought coffee for 3 euro at 14:00:00
	Bought pie for 3.6 euro at 13:48:00

	Bought coffee for 3.6 euro at 13:48:00
	Bought None for 0.0 euro at 16:28:00

	Bought coffee for 3.6 euro at 16:28:00
	Bought sandwich for 6.0 euro at 12:24:00

	Bought frappucino for 4.8 euro at 12:24:00
	Bought sandwich for 6.0 euro at 11:24:00

	Bought soda for 3.6 euro at 11:24:00
	Bought None for 0.0 euro at 10:25:00

	Bought milkshake for 6.0 euro at 10:25:00
	Bought None for 0.0 euro at 13:32:00

	Bought milkshake for 6.0 euro at 13:32:00
	Bought pie for 3.6 euro at 11:02:00

	Bought soda for 3.6 euro at 11:02:00
	Bought None for 0.0 euro at 15:48:00

	Bought frappucino for 4.8 euro at 15:48:00
	Bought sandwich for 6.0 euro at 12:36:00

	Bought coffee for 3.6 euro at 12:36:00
(4) CustomerID: 821	 history:
 	
	Bought None for 0 euro at 08:55:00

	Bought soda for 3 euro at 08:55:00
	Bought None for 0 euro at 09:45:00

	Bought frappucino for 4 euro at 09:45:00
	Bought None for 0 euro at 17:44:00

	Bought coffee for 3 euro at 17:44:00
	Bought pie for 3 euro at 17:00:00

	Bought soda for 3 euro at 17:00:00
	Bought None for 0 euro at 08:25:00

	Bought coffee for 3 euro at 08:25:00
	Bought cookie for 2 euro at 14:36:00

	Bought tea for 3 euro at 14:36:00
	Bought pie for 3 euro at 14:52:00

	Bought milkshake for 5 euro at 14:52:00
	Bought sandwich for 5 euro at 12:18:00

	Bought soda for 3 euro at 12:18:00
	Bought sandwich for 5 euro at 11:30:00

	Bought water for 2 euro at 11:30:00
	Bought None for 0 euro at 15:48:00

	Bought frappucino for 4 euro at 15:48:00
	Bought sandwich for 5 euro at 11:24:00

	Bought soda for 3 euro at 11:24:00
	Bought sandwich for 5 euro at 11:50:00

	Bought frappucino for 4 euro at 11:50:00
	Bought None for 0 euro at 09:20:00

	Bought milkshake for 5 euro at 09:20:00
	Bought cookie for 2 euro at 13:56:00

	Bought frappucino for 4 euro at 13:56:00
	Bought None for 0 euro at 15:32:00

	Bought water for 2 euro at 15:32:00
	Bought cookie for 2 euro at 12:40:00

	Bought soda for 3 euro at 12:40:00
	Bought muffin for 3 euro at 14:36:00

	Bought coffee for 3 euro at 14:36:00
	Bought None for 0 euro at 10:15:00

	Bought coffee for 3 euro at 10:15:00
	Bought sandwich for 5 euro at 12:02:00

	Bought soda for 3 euro at 12:02:00
	Bought None for 0 euro at 15:36:00

	Bought tea for 3 euro at 15:36:00
	Bought None for 0.0 euro at 17:52:00

	Bought milkshake for 6.0 euro at 17:52:00
	Bought cookie for 2.4 euro at 14:08:00

	Bought frappucino for 4.8 euro at 14:08:00
	Bought None for 0.0 euro at 17:08:00

	Bought milkshake for 6.0 euro at 17:08:00
	Bought pie for 3.6 euro at 16:52:00

	Bought frappucino for 4.8 euro at 16:52:00
	Bought pie for 3.6 euro at 13:16:00

	Bought coffee for 3.6 euro at 13:16:00
	Bought sandwich for 6.0 euro at 11:16:00

	Bought soda for 3.6 euro at 11:16:00
	Bought sandwich for 6.0 euro at 12:32:00

	Bought soda for 3.6 euro at 12:32:00
	Bought sandwich for 6.0 euro at 12:28:00

	Bought soda for 3.6 euro at 12:28:00
	Bought sandwich for 6.0 euro at 12:22:00

	Bought tea for 3.6 euro at 12:22:00
	Bought None for 0.0 euro at 16:48:00

	Bought soda for 3.6 euro at 16:48:00
	Bought pie for 3.6 euro at 11:14:00

	Bought soda for 3.6 euro at 11:14:00
	Bought pie for 3.6 euro at 13:08:00

	Bought soda for 3.6 euro at 13:08:00
	Bought None for 0.0 euro at 09:45:00

	Bought tea for 3.6 euro at 09:45:00
	Bought None for 0.0 euro at 15:20:00

	Bought water for 2.4 euro at 15:20:00
	Bought None for 0.0 euro at 10:00:00

	Bought coffee for 3.6 euro at 10:00:00
	Bought muffin for 3.6 euro at 16:12:00

	Bought frappucino for 4.8 euro at 16:12:00
	Bought cookie for 2.4 euro at 16:28:00

	Bought water for 2.4 euro at 16:28:00
	Bought muffin for 3.6 euro at 11:08:00

	Bought coffee for 3.6 euro at 11:08:00
	Bought None for 0.0 euro at 08:45:00

	Bought milkshake for 6.0 euro at 08:45:00
	Bought None for 0.0 euro at 16:04:00

	Bought coffee for 3.6 euro at 16:04:00
	Bought None for 0.0 euro at 10:20:00

	Bought coffee for 3.6 euro at 10:20:00
	Bought None for 0.0 euro at 17:16:00

	Bought coffee for 3.6 euro at 17:16:00
(5) CustomerID: 645	 history:
 	
	Bought muffin for 3 euro at 12:52:00

	Bought soda for 3 euro at 12:52:00
	Bought None for 0 euro at 13:32:00

	Bought tea for 3 euro at 13:32:00
	Bought muffin for 3 euro at 12:12:00

	Bought soda for 3 euro at 12:12:00
	Bought pie for 3 euro at 12:34:00

	Bought soda for 3 euro at 12:34:00
	Bought muffin for 3 euro at 17:52:00

	Bought frappucino for 4 euro at 17:52:00
	Bought None for 0 euro at 17:48:00

	Bought frappucino for 4 euro at 17:48:00
	Bought sandwich for 5 euro at 11:04:00

	Bought soda for 3 euro at 11:04:00
	Bought pie for 3 euro at 11:10:00

	Bought soda for 3 euro at 11:10:00
	Bought None for 0 euro at 17:48:00

	Bought frappucino for 4 euro at 17:48:00
	Bought pie for 3 euro at 15:00:00

	Bought water for 2 euro at 15:00:00
	Bought pie for 3 euro at 16:40:00

	Bought tea for 3 euro at 16:40:00
	Bought pie for 3 euro at 14:52:00

	Bought tea for 3 euro at 14:52:00
	Bought None for 0 euro at 13:52:00

	Bought frappucino for 4 euro at 13:52:00
	Bought None for 0 euro at 17:20:00

	Bought milkshake for 5 euro at 17:20:00
	Bought None for 0 euro at 17:56:00

	Bought tea for 3 euro at 17:56:00
	Bought sandwich for 5 euro at 12:58:00

	Bought soda for 3 euro at 12:58:00
	Bought sandwich for 5 euro at 11:16:00

	Bought frappucino for 4 euro at 11:16:00
	Bought muffin for 3 euro at 17:48:00

	Bought milkshake for 5 euro at 17:48:00
	Bought sandwich for 5 euro at 11:00:00

	Bought coffee for 3 euro at 11:00:00
	Bought pie for 3 euro at 11:04:00

	Bought soda for 3 euro at 11:04:00
	Bought pie for 3 euro at 15:04:00

	Bought soda for 3 euro at 15:04:00
	Bought cookie for 2 euro at 13:36:00

	Bought water for 2 euro at 13:36:00
	Bought None for 0 euro at 13:12:00

	Bought frappucino for 4 euro at 13:12:00
	Bought None for 0 euro at 13:08:00

	Bought frappucino for 4 euro at 13:08:00
	Bought None for 0.0 euro at 09:10:00

	Bought water for 2.4 euro at 09:10:00
	Bought None for 0.0 euro at 15:12:00

	Bought water for 2.4 euro at 15:12:00
	Bought pie for 3.6 euro at 17:32:00

	Bought tea for 3.6 euro at 17:32:00
	Bought muffin for 3.6 euro at 12:36:00

	Bought soda for 3.6 euro at 12:36:00
	Bought pie for 3.6 euro at 13:32:00

	Bought frappucino for 4.8 euro at 13:32:00
	Bought None for 0.0 euro at 14:48:00

	Bought water for 2.4 euro at 14:48:00
	Bought sandwich for 6.0 euro at 11:52:00

	Bought soda for 3.6 euro at 11:52:00
	Bought sandwich for 6.0 euro at 11:46:00

	Bought soda for 3.6 euro at 11:46:00
	Bought muffin for 3.6 euro at 14:04:00

	Bought frappucino for 4.8 euro at 14:04:00
	Bought None for 0.0 euro at 08:00:00

	Bought tea for 3.6 euro at 08:00:00
	Bought None for 0.0 euro at 08:40:00

	Bought coffee for 3.6 euro at 08:40:00
	Bought sandwich for 6.0 euro at 11:02:00

	Bought soda for 3.6 euro at 11:02:00
	Bought None for 0.0 euro at 16:56:00

	Bought water for 2.4 euro at 16:56:00
	Bought None for 0.0 euro at 10:20:00

	Bought soda for 3.6 euro at 10:20:00
	Bought cookie for 2.4 euro at 13:00:00

	Bought milkshake for 6.0 euro at 13:00:00
	Bought None for 0.0 euro at 08:00:00

	Bought coffee for 3.6 euro at 08:00:00
	Bought sandwich for 6.0 euro at 11:30:00

	Bought coffee for 3.6 euro at 11:30:00
	Bought cookie for 2.4 euro at 11:58:00

	Bought frappucino for 4.8 euro at 11:58:00
(6) CustomerID: 99	 history:
 	
	Bought None for 0 euro at 08:40:00

	Bought coffee for 3 euro at 08:40:00
	Bought None for 0 euro at 13:28:00

	Bought frappucino for 4 euro at 13:28:00
	Bought None for 0 euro at 10:45:00

	Bought coffee for 3 euro at 10:45:00
	Bought pie for 3 euro at 15:40:00

	Bought water for 2 euro at 15:40:00
	Bought muffin for 3 euro at 11:08:00

	Bought milkshake for 5 euro at 11:08:00
	Bought pie for 3 euro at 11:20:00

	Bought soda for 3 euro at 11:20:00
	Bought muffin for 3 euro at 11:20:00

	Bought milkshake for 5 euro at 11:20:00
	Bought None for 0 euro at 15:36:00

	Bought frappucino for 4 euro at 15:36:00
	Bought sandwich for 5 euro at 11:24:00

	Bought coffee for 3 euro at 11:24:00
	Bought None for 0 euro at 14:08:00

	Bought frappucino for 4 euro at 14:08:00
	Bought None for 0 euro at 13:32:00

	Bought milkshake for 5 euro at 13:32:00
	Bought None for 0 euro at 13:04:00

	Bought coffee for 3 euro at 13:04:00
	Bought None for 0 euro at 16:28:00

	Bought soda for 3 euro at 16:28:00
	Bought sandwich for 5 euro at 12:08:00

	Bought soda for 3 euro at 12:08:00
	Bought None for 0 euro at 08:20:00

	Bought water for 2 euro at 08:20:00
	Bought sandwich for 5 euro at 12:20:00

	Bought frappucino for 4 euro at 12:20:00
	Bought None for 0 euro at 08:50:00

	Bought soda for 3 euro at 08:50:00
	Bought muffin for 3 euro at 17:56:00

	Bought frappucino for 4 euro at 17:56:00
	Bought sandwich for 5 euro at 11:58:00

	Bought soda for 3 euro at 11:58:00
	Bought muffin for 3 euro at 12:28:00

	Bought soda for 3 euro at 12:28:00
	Bought sandwich for 5 euro at 11:44:00

	Bought soda for 3 euro at 11:44:00
	Bought None for 0 euro at 10:05:00

	Bought milkshake for 5 euro at 10:05:00
	Bought sandwich for 5 euro at 11:02:00

	Bought coffee for 3 euro at 11:02:00
	Bought muffin for 3 euro at 12:34:00

	Bought tea for 3 euro at 12:34:00
	Bought None for 0 euro at 10:30:00

	Bought coffee for 3 euro at 10:30:00
	Bought None for 0 euro at 17:00:00

	Bought tea for 3 euro at 17:00:00
	Bought None for 0 euro at 15:56:00

	Bought frappucino for 4 euro at 15:56:00
	Bought None for 0 euro at 16:52:00

	Bought water for 2 euro at 16:52:00
	Bought None for 0 euro at 08:35:00

	Bought coffee for 3 euro at 08:35:00
	Bought None for 0 euro at 08:50:00

	Bought milkshake for 5 euro at 08:50:00
	Bought None for 0 euro at 10:25:00

	Bought water for 2 euro at 10:25:00
	Bought pie for 3 euro at 14:44:00

	Bought water for 2 euro at 14:44:00
	Bought sandwich for 6.0 euro at 11:18:00

	Bought soda for 3.6 euro at 11:18:00
	Bought None for 0.0 euro at 13:52:00

	Bought water for 2.4 euro at 13:52:00
	Bought None for 0.0 euro at 09:25:00

	Bought coffee for 3.6 euro at 09:25:00
	Bought None for 0.0 euro at 13:24:00

	Bought soda for 3.6 euro at 13:24:00
	Bought None for 0.0 euro at 10:20:00

	Bought coffee for 3.6 euro at 10:20:00
	Bought pie for 3.6 euro at 11:10:00

	Bought soda for 3.6 euro at 11:10:00
	Bought muffin for 3.6 euro at 12:58:00

	Bought soda for 3.6 euro at 12:58:00
	Bought None for 0.0 euro at 10:25:00

	Bought water for 2.4 euro at 10:25:00
	Bought None for 0.0 euro at 08:50:00

	Bought water for 2.4 euro at 08:50:00
	Bought None for 0.0 euro at 09:00:00

	Bought coffee for 3.6 euro at 09:00:00
	Bought sandwich for 6.0 euro at 11:18:00

	Bought milkshake for 6.0 euro at 11:18:00
	Bought None for 0.0 euro at 16:56:00

	Bought soda for 3.6 euro at 16:56:00
	Bought None for 0.0 euro at 08:40:00

	Bought coffee for 3.6 euro at 08:40:00
	Bought None for 0.0 euro at 08:55:00

	Bought coffee for 3.6 euro at 08:55:00
	Bought pie for 3.6 euro at 13:16:00

	Bought coffee for 3.6 euro at 13:16:00
	Bought None for 0.0 euro at 17:08:00

	Bought milkshake for 6.0 euro at 17:08:00
	Bought muffin for 3.6 euro at 17:56:00

	Bought frappucino for 4.8 euro at 17:56:00
	Bought None for 0.0 euro at 15:28:00

	Bought coffee for 3.6 euro at 15:28:00
	Bought cookie for 2.4 euro at 17:32:00

	Bought frappucino for 4.8 euro at 17:32:00
	Bought None for 0.0 euro at 13:36:00

	Bought soda for 3.6 euro at 13:36:00
	Bought pie for 3.6 euro at 16:24:00

	Bought water for 2.4 euro at 16:24:00
	Bought cookie for 2.4 euro at 12:20:00

	Bought soda for 3.6 euro at 12:20:00
	Bought None for 0.0 euro at 17:20:00

	Bought tea for 3.6 euro at 17:20:00
	Bought cookie for 2.4 euro at 14:36:00

	Bought soda for 3.6 euro at 14:36:00
	Bought None for 0.0 euro at 15:56:00

	Bought tea for 3.6 euro at 15:56:00
	Bought sandwich for 6.0 euro at 12:14:00

	Bought soda for 3.6 euro at 12:14:00
	Bought None for 0.0 euro at 08:15:00

	Bought coffee for 3.6 euro at 08:15:00
	Bought cookie for 2.4 euro at 12:54:00

	Bought water for 2.4 euro at 12:54:00
	Bought pie for 3.6 euro at 15:52:00

	Bought coffee for 3.6 euro at 15:52:00
	Bought sandwich for 6.0 euro at 11:04:00

	Bought water for 2.4 euro at 11:04:00
	Bought pie for 3.6 euro at 11:48:00

	Bought tea for 3.6 euro at 11:48:00
	Bought sandwich for 6.0 euro at 12:28:00

	Bought soda for 3.6 euro at 12:28:00
	Bought None for 0.0 euro at 10:35:00

	Bought milkshake for 6.0 euro at 10:35:00
	Bought pie for 3.6 euro at 11:24:00

	Bought frappucino for 4.8 euro at 11:24:00
	Bought cookie for 2.4 euro at 17:52:00

	Bought soda for 3.6 euro at 17:52:00
	Bought None for 0.0 euro at 14:32:00

	Bought coffee for 3.6 euro at 14:32:00
	Bought None for 0.0 euro at 10:45:00

	Bought milkshake for 6.0 euro at 10:45:00
	Bought None for 0.0 euro at 09:30:00

	Bought soda for 3.6 euro at 09:30:00
	Bought pie for 3.6 euro at 13:32:00

	Bought coffee for 3.6 euro at 13:32:00
	Bought None for 0.0 euro at 10:20:00

	Bought tea for 3.6 euro at 10:20:00
	Bought pie for 3.6 euro at 13:48:00

	Bought tea for 3.6 euro at 13:48:00
	Bought sandwich for 6.0 euro at 11:48:00

	Bought frappucino for 4.8 euro at 11:48:00
	Bought sandwich for 6.0 euro at 11:06:00

	Bought coffee for 3.6 euro at 11:06:00
	Bought None for 0.0 euro at 09:40:00

	Bought coffee for 3.6 euro at 09:40:00
	Bought None for 0.0 euro at 10:30:00

	Bought frappucino for 4.8 euro at 10:30:00
	Bought None for 0.0 euro at 15:44:00

	Bought frappucino for 4.8 euro at 15:44:00
	Bought cookie for 2.4 euro at 14:24:00

	Bought milkshake for 6.0 euro at 14:24:00
	Bought None for 0.0 euro at 09:00:00

	Bought milkshake for 6.0 euro at 09:00:00
	Bought None for 0.0 euro at 09:40:00

	Bought coffee for 3.6 euro at 09:40:00
	Bought sandwich for 6.0 euro at 11:30:00

	Bought soda for 3.6 euro at 11:30:00
	Bought sandwich for 6.0 euro at 11:56:00

	Bought soda for 3.6 euro at 11:56:00
	Bought cookie for 2.4 euro at 12:18:00

	Bought soda for 3.6 euro at 12:18:00
	Bought sandwich for 6.0 euro at 12:46:00

	Bought soda for 3.6 euro at 12:46:00
	Bought None for 0.0 euro at 08:20:00

	Bought coffee for 3.6 euro at 08:20:00
	Bought None for 0.0 euro at 13:36:00

	Bought tea for 3.6 euro at 13:36:00
	Bought pie for 3.6 euro at 17:04:00

	Bought frappucino for 4.8 euro at 17:04:00
	Bought None for 0.0 euro at 14:36:00

	Bought tea for 3.6 euro at 14:36:00
(7) CustomerID: 310	 history:
 	
	Bought sandwich for 5 euro at 12:58:00

	Bought frappucino for 4 euro at 12:58:00
	Bought muffin for 3 euro at 13:24:00

	Bought soda for 3 euro at 13:24:00
	Bought sandwich for 5 euro at 12:36:00

	Bought frappucino for 4 euro at 12:36:00
	Bought None for 0 euro at 08:35:00

	Bought water for 2 euro at 08:35:00
	Bought sandwich for 5 euro at 11:32:00

	Bought coffee for 3 euro at 11:32:00
	Bought None for 0 euro at 15:20:00

	Bought soda for 3 euro at 15:20:00
	Bought None for 0 euro at 08:10:00

	Bought milkshake for 5 euro at 08:10:00
	Bought pie for 3 euro at 11:44:00

	Bought water for 2 euro at 11:44:00
	Bought pie for 3 euro at 11:08:00

	Bought frappucino for 4 euro at 11:08:00
	Bought sandwich for 5 euro at 12:42:00

	Bought tea for 3 euro at 12:42:00
	Bought None for 0 euro at 16:00:00

	Bought water for 2 euro at 16:00:00
	Bought None for 0 euro at 10:45:00

	Bought water for 2 euro at 10:45:00
	Bought None for 0 euro at 13:48:00

	Bought soda for 3 euro at 13:48:00
	Bought sandwich for 5 euro at 12:18:00

	Bought soda for 3 euro at 12:18:00
	Bought None for 0 euro at 15:24:00

	Bought soda for 3 euro at 15:24:00
	Bought None for 0 euro at 13:36:00

	Bought frappucino for 4 euro at 13:36:00
	Bought None for 0 euro at 09:40:00

	Bought frappucino for 4 euro at 09:40:00
	Bought pie for 3 euro at 12:46:00

	Bought soda for 3 euro at 12:46:00
	Bought None for 0 euro at 10:35:00

	Bought milkshake for 5 euro at 10:35:00
	Bought None for 0 euro at 09:25:00

	Bought coffee for 3 euro at 09:25:00
	Bought None for 0 euro at 15:12:00

	Bought milkshake for 5 euro at 15:12:00
	Bought None for 0 euro at 17:04:00

	Bought frappucino for 4 euro at 17:04:00
	Bought pie for 3 euro at 13:32:00

	Bought water for 2 euro at 13:32:00
	Bought None for 0 euro at 14:24:00

	Bought soda for 3 euro at 14:24:00
	Bought None for 0 euro at 15:44:00

	Bought tea for 3 euro at 15:44:00
	Bought muffin for 3 euro at 15:00:00

	Bought coffee for 3 euro at 15:00:00
	Bought pie for 3 euro at 11:00:00

	Bought soda for 3 euro at 11:00:00
	Bought cookie for 2.4 euro at 11:20:00

	Bought soda for 3.6 euro at 11:20:00
	Bought None for 0.0 euro at 14:24:00

	Bought frappucino for 4.8 euro at 14:24:00
	Bought sandwich for 6.0 euro at 11:12:00

	Bought soda for 3.6 euro at 11:12:00
	Bought None for 0.0 euro at 14:52:00

	Bought water for 2.4 euro at 14:52:00
	Bought sandwich for 6.0 euro at 12:56:00

	Bought soda for 3.6 euro at 12:56:00
	Bought None for 0.0 euro at 16:44:00

	Bought milkshake for 6.0 euro at 16:44:00
	Bought sandwich for 6.0 euro at 12:36:00

	Bought frappucino for 4.8 euro at 12:36:00
	Bought pie for 3.6 euro at 13:20:00

	Bought soda for 3.6 euro at 13:20:00
	Bought None for 0.0 euro at 14:44:00

	Bought milkshake for 6.0 euro at 14:44:00
	Bought pie for 3.6 euro at 17:20:00

	Bought coffee for 3.6 euro at 17:20:00
	Bought None for 0.0 euro at 17:16:00

	Bought milkshake for 6.0 euro at 17:16:00
	Bought None for 0.0 euro at 09:25:00

	Bought milkshake for 6.0 euro at 09:25:00
	Bought None for 0.0 euro at 10:55:00

	Bought frappucino for 4.8 euro at 10:55:00
	Bought muffin for 3.6 euro at 16:08:00

	Bought tea for 3.6 euro at 16:08:00
	Bought None for 0.0 euro at 10:30:00

	Bought milkshake for 6.0 euro at 10:30:00
	Bought None for 0.0 euro at 16:00:00

	Bought coffee for 3.6 euro at 16:00:00
	Bought None for 0.0 euro at 08:05:00

	Bought soda for 3.6 euro at 08:05:00
	Bought None for 0.0 euro at 09:55:00

	Bought water for 2.4 euro at 09:55:00
	Bought None for 0.0 euro at 13:04:00

	Bought water for 2.4 euro at 13:04:00
	Bought None for 0.0 euro at 15:44:00

	Bought soda for 3.6 euro at 15:44:00
	Bought muffin for 3.6 euro at 12:22:00

	Bought frappucino for 4.8 euro at 12:22:00
	Bought None for 0.0 euro at 08:00:00

	Bought soda for 3.6 euro at 08:00:00
	Bought cookie for 2.4 euro at 13:28:00

	Bought coffee for 3.6 euro at 13:28:00
	Bought None for 0.0 euro at 17:20:00

	Bought tea for 3.6 euro at 17:20:00
	Bought cookie for 2.4 euro at 11:36:00

	Bought water for 2.4 euro at 11:36:00
	Bought pie for 3.6 euro at 11:20:00

	Bought soda for 3.6 euro at 11:20:00
	Bought sandwich for 6.0 euro at 11:44:00

	Bought soda for 3.6 euro at 11:44:00
	Bought muffin for 3.6 euro at 16:52:00

	Bought milkshake for 6.0 euro at 16:52:00
	Bought cookie for 2.4 euro at 17:40:00

	Bought tea for 3.6 euro at 17:40:00
	Bought None for 0.0 euro at 16:00:00

	Bought milkshake for 6.0 euro at 16:00:00
	Bought sandwich for 6.0 euro at 11:18:00

	Bought soda for 3.6 euro at 11:18:00
	Bought muffin for 3.6 euro at 14:28:00

	Bought tea for 3.6 euro at 14:28:00
	Bought pie for 3.6 euro at 13:04:00

	Bought water for 2.4 euro at 13:04:00
	Bought None for 0.0 euro at 15:20:00

	Bought water for 2.4 euro at 15:20:00
	Bought None for 0.0 euro at 09:20:00

	Bought coffee for 3.6 euro at 09:20:00
	Bought cookie for 2.4 euro at 12:16:00

	Bought soda for 3.6 euro at 12:16:00
	Bought sandwich for 6.0 euro at 11:32:00

	Bought soda for 3.6 euro at 11:32:00
	Bought None for 0.0 euro at 08:15:00

	Bought coffee for 3.6 euro at 08:15:00
	Bought None for 0.0 euro at 13:40:00

	Bought tea for 3.6 euro at 13:40:00
	Bought None for 0.0 euro at 09:50:00

	Bought water for 2.4 euro at 09:50:00
	Bought None for 0.0 euro at 15:08:00

	Bought frappucino for 4.8 euro at 15:08:00
	Bought pie for 3.6 euro at 15:28:00

	Bought coffee for 3.6 euro at 15:28:00
	Bought None for 0.0 euro at 09:30:00

	Bought frappucino for 4.8 euro at 09:30:00
	Bought None for 0.0 euro at 13:20:00

	Bought milkshake for 6.0 euro at 13:20:00
	Bought None for 0.0 euro at 10:25:00

	Bought tea for 3.6 euro at 10:25:00
	Bought None for 0.0 euro at 16:24:00

	Bought tea for 3.6 euro at 16:24:00
	Bought None for 0.0 euro at 09:05:00

	Bought milkshake for 6.0 euro at 09:05:00
	Bought None for 0.0 euro at 14:48:00

	Bought milkshake for 6.0 euro at 14:48:00
	Bought None for 0.0 euro at 17:32:00

	Bought milkshake for 6.0 euro at 17:32:00
	Bought sandwich for 6.0 euro at 12:18:00

	Bought soda for 3.6 euro at 12:18:00
	Bought None for 0.0 euro at 16:56:00

	Bought water for 2.4 euro at 16:56:00
	Bought None for 0.0 euro at 08:55:00

	Bought soda for 3.6 euro at 08:55:00
	Bought sandwich for 6.0 euro at 12:48:00

	Bought water for 2.4 euro at 12:48:00
	Bought cookie for 2.4 euro at 12:06:00

	Bought soda for 3.6 euro at 12:06:00
	Bought sandwich for 6.0 euro at 11:22:00

	Bought soda for 3.6 euro at 11:22:00
	Bought None for 0.0 euro at 09:10:00

	Bought water for 2.4 euro at 09:10:00
	Bought pie for 3.6 euro at 12:30:00

	Bought soda for 3.6 euro at 12:30:00
	Bought muffin for 3.6 euro at 14:04:00

	Bought water for 2.4 euro at 14:04:00
	Bought None for 0.0 euro at 14:00:00

	Bought soda for 3.6 euro at 14:00:00
	Bought None for 0.0 euro at 14:12:00

	Bought soda for 3.6 euro at 14:12:00
	Bought None for 0.0 euro at 09:10:00

	Bought milkshake for 6.0 euro at 09:10:00
	Bought None for 0.0 euro at 14:16:00

	Bought water for 2.4 euro at 14:16:00
	Bought None for 0.0 euro at 17:48:00

	Bought soda for 3.6 euro at 17:48:00
	Bought None for 0.0 euro at 14:36:00

	Bought coffee for 3.6 euro at 14:36:00
(8) CustomerID: 198	 history:
 	
	Bought pie for 3 euro at 11:56:00

	Bought soda for 3 euro at 11:56:00
	Bought None for 0 euro at 17:52:00

	Bought coffee for 3 euro at 17:52:00
	Bought sandwich for 5 euro at 12:30:00

	Bought soda for 3 euro at 12:30:00
	Bought sandwich for 5 euro at 11:22:00

	Bought milkshake for 5 euro at 11:22:00
	Bought None for 0 euro at 15:44:00

	Bought soda for 3 euro at 15:44:00
	Bought sandwich for 5 euro at 11:06:00

	Bought soda for 3 euro at 11:06:00
	Bought sandwich for 5 euro at 11:02:00

	Bought milkshake for 5 euro at 11:02:00
	Bought None for 0 euro at 13:12:00

	Bought coffee for 3 euro at 13:12:00
	Bought cookie for 2 euro at 11:54:00

	Bought soda for 3 euro at 11:54:00
	Bought None for 0 euro at 09:10:00

	Bought milkshake for 5 euro at 09:10:00
	Bought None for 0 euro at 15:28:00

	Bought soda for 3 euro at 15:28:00
	Bought None for 0 euro at 17:20:00

	Bought soda for 3 euro at 17:20:00
	Bought muffin for 3 euro at 17:52:00

	Bought milkshake for 5 euro at 17:52:00
	Bought sandwich for 5 euro at 12:44:00

	Bought coffee for 3 euro at 12:44:00
	Bought None for 0 euro at 14:16:00

	Bought water for 2 euro at 14:16:00
	Bought None for 0 euro at 08:55:00

	Bought water for 2 euro at 08:55:00
	Bought cookie for 2 euro at 17:48:00

	Bought coffee for 3 euro at 17:48:00
	Bought sandwich for 5 euro at 12:36:00

	Bought milkshake for 5 euro at 12:36:00
	Bought sandwich for 5 euro at 11:44:00

	Bought soda for 3 euro at 11:44:00
	Bought None for 0 euro at 13:20:00

	Bought frappucino for 4 euro at 13:20:00
	Bought muffin for 3 euro at 15:40:00

	Bought milkshake for 5 euro at 15:40:00
	Bought sandwich for 5 euro at 12:36:00

	Bought frappucino for 4 euro at 12:36:00
	Bought cookie for 2 euro at 12:32:00

	Bought soda for 3 euro at 12:32:00
	Bought None for 0 euro at 15:52:00

	Bought tea for 3 euro at 15:52:00
	Bought pie for 3 euro at 16:12:00

	Bought soda for 3 euro at 16:12:00
	Bought sandwich for 6.0 euro at 12:08:00

	Bought soda for 3.6 euro at 12:08:00
	Bought cookie for 2.4 euro at 13:28:00

	Bought tea for 3.6 euro at 13:28:00
	Bought None for 0.0 euro at 08:40:00

	Bought coffee for 3.6 euro at 08:40:00
	Bought None for 0.0 euro at 16:16:00

	Bought milkshake for 6.0 euro at 16:16:00
	Bought None for 0.0 euro at 10:25:00

	Bought coffee for 3.6 euro at 10:25:00
	Bought None for 0.0 euro at 10:55:00

	Bought soda for 3.6 euro at 10:55:00
	Bought None for 0.0 euro at 08:50:00

	Bought soda for 3.6 euro at 08:50:00
	Bought pie for 3.6 euro at 11:08:00

	Bought soda for 3.6 euro at 11:08:00
	Bought pie for 3.6 euro at 12:12:00

	Bought soda for 3.6 euro at 12:12:00
	Bought None for 0.0 euro at 09:00:00

	Bought coffee for 3.6 euro at 09:00:00
	Bought pie for 3.6 euro at 17:40:00

	Bought coffee for 3.6 euro at 17:40:00
	Bought None for 0.0 euro at 15:28:00

	Bought water for 2.4 euro at 15:28:00
	Bought None for 0.0 euro at 10:10:00

	Bought coffee for 3.6 euro at 10:10:00
	Bought sandwich for 6.0 euro at 12:18:00

	Bought soda for 3.6 euro at 12:18:00
	Bought None for 0.0 euro at 10:20:00

	Bought frappucino for 4.8 euro at 10:20:00
	Bought None for 0.0 euro at 10:45:00

	Bought tea for 3.6 euro at 10:45:00
	Bought cookie for 2.4 euro at 11:24:00

	Bought soda for 3.6 euro at 11:24:00
	Bought None for 0.0 euro at 10:15:00

	Bought soda for 3.6 euro at 10:15:00
	Bought None for 0.0 euro at 08:15:00

	Bought frappucino for 4.8 euro at 08:15:00
	Bought None for 0.0 euro at 08:30:00

	Bought frappucino for 4.8 euro at 08:30:00
	Bought sandwich for 6.0 euro at 12:20:00

	Bought soda for 3.6 euro at 12:20:00
	Bought None for 0.0 euro at 16:00:00

	Bought frappucino for 4.8 euro at 16:00:00
	Bought cookie for 2.4 euro at 11:38:00

	Bought frappucino for 4.8 euro at 11:38:00
	Bought sandwich for 6.0 euro at 11:40:00

	Bought soda for 3.6 euro at 11:40:00
	Bought muffin for 3.6 euro at 12:02:00

	Bought water for 2.4 euro at 12:02:00
	Bought None for 0.0 euro at 13:44:00

	Bought water for 2.4 euro at 13:44:00
	Bought cookie for 2.4 euro at 14:04:00

	Bought milkshake for 6.0 euro at 14:04:00
	Bought None for 0.0 euro at 08:05:00

	Bought coffee for 3.6 euro at 08:05:00
	Bought None for 0.0 euro at 10:50:00

	Bought coffee for 3.6 euro at 10:50:00
	Bought sandwich for 6.0 euro at 12:18:00

	Bought soda for 3.6 euro at 12:18:00
	Bought muffin for 3.6 euro at 15:40:00

	Bought tea for 3.6 euro at 15:40:00
	Bought None for 0.0 euro at 10:20:00

	Bought water for 2.4 euro at 10:20:00
	Bought sandwich for 6.0 euro at 11:12:00

	Bought soda for 3.6 euro at 11:12:00
	Bought None for 0.0 euro at 10:55:00

	Bought water for 2.4 euro at 10:55:00
	Bought None for 0.0 euro at 10:00:00

	Bought frappucino for 4.8 euro at 10:00:00
	Bought None for 0.0 euro at 17:00:00

	Bought frappucino for 4.8 euro at 17:00:00
	Bought pie for 3.6 euro at 15:20:00

	Bought water for 2.4 euro at 15:20:00
	Bought sandwich for 6.0 euro at 11:10:00

	Bought water for 2.4 euro at 11:10:00
	Bought None for 0.0 euro at 15:44:00

	Bought soda for 3.6 euro at 15:44:00
	Bought sandwich for 6.0 euro at 11:34:00

	Bought milkshake for 6.0 euro at 11:34:00
	Bought muffin for 3.6 euro at 12:36:00

	Bought soda for 3.6 euro at 12:36:00
	Bought None for 0.0 euro at 10:25:00

	Bought tea for 3.6 euro at 10:25:00
	Bought sandwich for 6.0 euro at 12:58:00

	Bought milkshake for 6.0 euro at 12:58:00
	Bought cookie for 2.4 euro at 11:18:00

	Bought soda for 3.6 euro at 11:18:00
	Bought pie for 3.6 euro at 15:16:00

	Bought milkshake for 6.0 euro at 15:16:00
	Bought None for 0.0 euro at 10:20:00

	Bought coffee for 3.6 euro at 10:20:00
	Bought cookie for 2.4 euro at 11:54:00

	Bought soda for 3.6 euro at 11:54:00
	Bought cookie for 2.4 euro at 12:52:00

	Bought soda for 3.6 euro at 12:52:00
	Bought None for 0.0 euro at 17:00:00

	Bought frappucino for 4.8 euro at 17:00:00
	Bought muffin for 3.6 euro at 16:20:00

	Bought soda for 3.6 euro at 16:20:00
	Bought None for 0.0 euro at 15:24:00

	Bought soda for 3.6 euro at 15:24:00
	Bought sandwich for 6.0 euro at 11:56:00

	Bought soda for 3.6 euro at 11:56:00
	Bought None for 0.0 euro at 09:00:00

	Bought soda for 3.6 euro at 09:00:00
	Bought None for 0.0 euro at 10:35:00

	Bought frappucino for 4.8 euro at 10:35:00
	Bought sandwich for 6.0 euro at 12:54:00

	Bought frappucino for 4.8 euro at 12:54:00
	Bought cookie for 2.4 euro at 17:56:00

	Bought milkshake for 6.0 euro at 17:56:00
	Bought pie for 3.6 euro at 11:30:00

	Bought tea for 3.6 euro at 11:30:00
	Bought None for 0.0 euro at 13:40:00

	Bought milkshake for 6.0 euro at 13:40:00
	Bought pie for 3.6 euro at 13:40:00

	Bought water for 2.4 euro at 13:40:00
(9) CustomerID: 390	 history:
 	
	Bought None for 0 euro at 17:24:00

	Bought frappucino for 4 euro at 17:24:00
	Bought pie for 3 euro at 14:44:00

	Bought tea for 3 euro at 14:44:00
	Bought sandwich for 5 euro at 11:04:00

	Bought soda for 3 euro at 11:04:00
	Bought None for 0 euro at 09:10:00

	Bought coffee for 3 euro at 09:10:00
	Bought None for 0 euro at 13:40:00

	Bought soda for 3 euro at 13:40:00
	Bought muffin for 3 euro at 15:36:00

	Bought milkshake for 5 euro at 15:36:00
	Bought None for 0 euro at 08:50:00

	Bought soda for 3 euro at 08:50:00
	Bought muffin for 3 euro at 11:10:00

	Bought soda for 3 euro at 11:10:00
	Bought None for 0 euro at 15:52:00

	Bought water for 2 euro at 15:52:00
	Bought sandwich for 5 euro at 11:24:00

	Bought soda for 3 euro at 11:24:00
	Bought None for 0 euro at 09:55:00

	Bought tea for 3 euro at 09:55:00
	Bought None for 0 euro at 09:20:00

	Bought coffee for 3 euro at 09:20:00
	Bought None for 0 euro at 14:32:00

	Bought water for 2 euro at 14:32:00
	Bought None for 0 euro at 08:35:00

	Bought coffee for 3 euro at 08:35:00
	Bought muffin for 3 euro at 15:52:00

	Bought soda for 3 euro at 15:52:00
	Bought muffin for 3 euro at 12:04:00

	Bought soda for 3 euro at 12:04:00
	Bought cookie for 2 euro at 15:48:00

	Bought coffee for 3 euro at 15:48:00
	Bought cookie for 2 euro at 13:16:00

	Bought tea for 3 euro at 13:16:00
	Bought muffin for 3 euro at 13:40:00

	Bought milkshake for 5 euro at 13:40:00
	Bought sandwich for 5 euro at 12:22:00

	Bought tea for 3 euro at 12:22:00
	Bought pie for 3 euro at 15:44:00

	Bought soda for 3 euro at 15:44:00
	Bought muffin for 3 euro at 17:04:00

	Bought milkshake for 5 euro at 17:04:00
	Bought None for 0 euro at 15:48:00

	Bought milkshake for 5 euro at 15:48:00
	Bought None for 0 euro at 16:36:00

	Bought frappucino for 4 euro at 16:36:00
	Bought pie for 3 euro at 13:12:00

	Bought water for 2 euro at 13:12:00
	Bought sandwich for 5 euro at 11:54:00

	Bought soda for 3 euro at 11:54:00
	Bought None for 0 euro at 17:56:00

	Bought tea for 3 euro at 17:56:00
	Bought None for 0 euro at 13:12:00

	Bought frappucino for 4 euro at 13:12:00
	Bought None for 0.0 euro at 13:04:00

	Bought frappucino for 4.8 euro at 13:04:00
	Bought None for 0.0 euro at 17:12:00

	Bought water for 2.4 euro at 17:12:00
	Bought pie for 3.6 euro at 15:16:00

	Bought frappucino for 4.8 euro at 15:16:00
	Bought sandwich for 6.0 euro at 11:50:00

	Bought soda for 3.6 euro at 11:50:00
	Bought sandwich for 6.0 euro at 11:52:00

	Bought soda for 3.6 euro at 11:52:00
	Bought None for 0.0 euro at 09:15:00

	Bought soda for 3.6 euro at 09:15:00
	Bought None for 0.0 euro at 10:20:00

	Bought soda for 3.6 euro at 10:20:00
	Bought None for 0.0 euro at 14:12:00

	Bought milkshake for 6.0 euro at 14:12:00
	Bought None for 0.0 euro at 16:52:00

	Bought water for 2.4 euro at 16:52:00
	Bought sandwich for 6.0 euro at 11:44:00

	Bought soda for 3.6 euro at 11:44:00
	Bought sandwich for 6.0 euro at 11:50:00

	Bought soda for 3.6 euro at 11:50:00
	Bought sandwich for 6.0 euro at 12:18:00

	Bought frappucino for 4.8 euro at 12:18:00
	Bought muffin for 3.6 euro at 16:56:00

	Bought coffee for 3.6 euro at 16:56:00
	Bought sandwich for 6.0 euro at 11:24:00

	Bought coffee for 3.6 euro at 11:24:00
	Bought pie for 3.6 euro at 12:14:00

	Bought soda for 3.6 euro at 12:14:00
(10) CustomerID: 278	 history:
 	
	Bought None for 0 euro at 14:20:00

	Bought water for 2 euro at 14:20:00
	Bought cookie for 2 euro at 12:30:00

	Bought coffee for 3 euro at 12:30:00
	Bought cookie for 2 euro at 11:56:00

	Bought soda for 3 euro at 11:56:00
	Bought None for 0 euro at 15:04:00

	Bought frappucino for 4 euro at 15:04:00
	Bought sandwich for 5 euro at 12:16:00

	Bought soda for 3 euro at 12:16:00
	Bought sandwich for 5 euro at 12:26:00

	Bought milkshake for 5 euro at 12:26:00
	Bought None for 0 euro at 09:25:00

	Bought coffee for 3 euro at 09:25:00
	Bought muffin for 3 euro at 15:40:00

	Bought frappucino for 4 euro at 15:40:00
	Bought sandwich for 5 euro at 11:48:00

	Bought milkshake for 5 euro at 11:48:00
	Bought None for 0 euro at 10:10:00

	Bought water for 2 euro at 10:10:00
	Bought sandwich for 5 euro at 11:28:00

	Bought frappucino for 4 euro at 11:28:00
	Bought sandwich for 5 euro at 11:04:00

	Bought milkshake for 5 euro at 11:04:00
	Bought None for 0 euro at 15:00:00

	Bought soda for 3 euro at 15:00:00
	Bought sandwich for 5 euro at 11:36:00

	Bought soda for 3 euro at 11:36:00
	Bought None for 0 euro at 10:40:00

	Bought coffee for 3 euro at 10:40:00
	Bought sandwich for 5 euro at 11:20:00

	Bought coffee for 3 euro at 11:20:00
	Bought None for 0 euro at 16:32:00

	Bought soda for 3 euro at 16:32:00
	Bought None for 0 euro at 16:48:00

	Bought coffee for 3 euro at 16:48:00
	Bought cookie for 2 euro at 12:00:00

	Bought milkshake for 5 euro at 12:00:00
	Bought muffin for 3 euro at 11:38:00

	Bought soda for 3 euro at 11:38:00
	Bought None for 0 euro at 13:28:00

	Bought frappucino for 4 euro at 13:28:00
	Bought sandwich for 5 euro at 12:10:00

	Bought soda for 3 euro at 12:10:00
	Bought None for 0 euro at 15:52:00

	Bought frappucino for 4 euro at 15:52:00
	Bought None for 0 euro at 16:12:00

	Bought coffee for 3 euro at 16:12:00
	Bought sandwich for 5 euro at 11:04:00

	Bought soda for 3 euro at 11:04:00
	Bought None for 0 euro at 14:20:00

	Bought water for 2 euro at 14:20:00
	Bought sandwich for 5 euro at 12:32:00

	Bought soda for 3 euro at 12:32:00
	Bought cookie for 2 euro at 13:20:00

	Bought tea for 3 euro at 13:20:00
	Bought pie for 3 euro at 13:56:00

	Bought tea for 3 euro at 13:56:00
	Bought None for 0 euro at 16:56:00

	Bought coffee for 3 euro at 16:56:00
	Bought muffin for 3 euro at 15:04:00

	Bought milkshake for 5 euro at 15:04:00
	Bought None for 0 euro at 09:35:00

	Bought tea for 3 euro at 09:35:00
	Bought pie for 3 euro at 12:48:00

	Bought soda for 3 euro at 12:48:00
	Bought cookie for 2 euro at 15:28:00

	Bought milkshake for 5 euro at 15:28:00
	Bought sandwich for 5 euro at 12:22:00

	Bought tea for 3 euro at 12:22:00
	Bought None for 0 euro at 10:15:00

	Bought water for 2 euro at 10:15:00
	Bought None for 0.0 euro at 14:32:00

	Bought frappucino for 4.8 euro at 14:32:00
	Bought None for 0.0 euro at 16:12:00

	Bought soda for 3.6 euro at 16:12:00
	Bought pie for 3.6 euro at 15:16:00

	Bought water for 2.4 euro at 15:16:00
	Bought muffin for 3.6 euro at 14:16:00

	Bought tea for 3.6 euro at 14:16:00
	Bought None for 0.0 euro at 14:36:00

	Bought tea for 3.6 euro at 14:36:00
	Bought None for 0.0 euro at 09:15:00

	Bought milkshake for 6.0 euro at 09:15:00
	Bought None for 0.0 euro at 17:08:00

	Bought coffee for 3.6 euro at 17:08:00
	Bought cookie for 2.4 euro at 14:24:00

	Bought coffee for 3.6 euro at 14:24:00
	Bought pie for 3.6 euro at 11:04:00

	Bought soda for 3.6 euro at 11:04:00
	Bought pie for 3.6 euro at 13:56:00

	Bought frappucino for 4.8 euro at 13:56:00
	Bought cookie for 2.4 euro at 11:04:00

	Bought soda for 3.6 euro at 11:04:00
	Bought None for 0.0 euro at 13:24:00

	Bought soda for 3.6 euro at 13:24:00
	Bought None for 0.0 euro at 10:55:00

	Bought frappucino for 4.8 euro at 10:55:00
	Bought None for 0.0 euro at 08:30:00

	Bought water for 2.4 euro at 08:30:00
	Bought None for 0.0 euro at 14:04:00

	Bought tea for 3.6 euro at 14:04:00
	Bought None for 0.0 euro at 14:08:00

	Bought frappucino for 4.8 euro at 14:08:00
	Bought sandwich for 6.0 euro at 11:02:00

	Bought soda for 3.6 euro at 11:02:00
	Bought cookie for 2.4 euro at 14:52:00

	Bought water for 2.4 euro at 14:52:00
	Bought sandwich for 6.0 euro at 11:52:00

	Bought frappucino for 4.8 euro at 11:52:00
	Bought sandwich for 6.0 euro at 11:06:00

	Bought soda for 3.6 euro at 11:06:00
	Bought None for 0.0 euro at 16:36:00

	Bought water for 2.4 euro at 16:36:00
	Bought muffin for 3.6 euro at 13:24:00

	Bought frappucino for 4.8 euro at 13:24:00
	Bought cookie for 2.4 euro at 15:40:00

	Bought milkshake for 6.0 euro at 15:40:00
	Bought None for 0.0 euro at 09:35:00

	Bought frappucino for 4.8 euro at 09:35:00
	Bought None for 0.0 euro at 14:20:00

	Bought soda for 3.6 euro at 14:20:00
	Bought pie for 3.6 euro at 11:58:00

	Bought soda for 3.6 euro at 11:58:00
	Bought None for 0.0 euro at 09:35:00

	Bought soda for 3.6 euro at 09:35:00
	Bought muffin for 3.6 euro at 15:20:00

	Bought coffee for 3.6 euro at 15:20:00
	Bought pie for 3.6 euro at 16:56:00

	Bought milkshake for 6.0 euro at 16:56:00
	Bought pie for 3.6 euro at 11:16:00

	Bought soda for 3.6 euro at 11:16:00
	Bought None for 0.0 euro at 16:48:00

	Bought tea for 3.6 euro at 16:48:00
	Bought pie for 3.6 euro at 12:14:00

	Bought soda for 3.6 euro at 12:14:00
	Bought cookie for 2.4 euro at 12:22:00

	Bought soda for 3.6 euro at 12:22:00
	Bought sandwich for 6.0 euro at 12:50:00

	Bought soda for 3.6 euro at 12:50:00
	Bought sandwich for 6.0 euro at 12:46:00

	Bought soda for 3.6 euro at 12:46:00
	Bought cookie for 2.4 euro at 13:12:00

	Bought soda for 3.6 euro at 13:12:00
	Bought None for 0.0 euro at 09:20:00

	Bought coffee for 3.6 euro at 09:20:00
	Bought pie for 3.6 euro at 17:52:00

	Bought coffee for 3.6 euro at 17:52:00
	Bought None for 0.0 euro at 16:00:00

	Bought tea for 3.6 euro at 16:00:00
	Bought cookie for 2.4 euro at 11:22:00

	Bought soda for 3.6 euro at 11:22:00
	Bought None for 0.0 euro at 10:30:00

	Bought tea for 3.6 euro at 10:30:00
	Bought None for 0.0 euro at 17:16:00

	Bought water for 2.4 euro at 17:16:00
	Bought None for 0.0 euro at 14:52:00

	Bought coffee for 3.6 euro at 14:52:00
	Bought None for 0.0 euro at 17:52:00

	Bought soda for 3.6 euro at 17:52:00
	Bought None for 0.0 euro at 08:20:00

	Bought soda for 3.6 euro at 08:20:00
	Bought None for 0.0 euro at 16:08:00

	Bought coffee for 3.6 euro at 16:08:00
	Bought None for 0.0 euro at 08:55:00

	Bought milkshake for 6.0 euro at 08:55:00
	Bought None for 0.0 euro at 15:04:00

	Bought milkshake for 6.0 euro at 15:04:00
	Bought None for 0.0 euro at 10:25:00

	Bought coffee for 3.6 euro at 10:25:00
	Bought sandwich for 6.0 euro at 11:30:00

	Bought water for 2.4 euro at 11:30:00
	Bought pie for 3.6 euro at 12:08:00

	Bought soda for 3.6 euro at 12:08:00